ID,USERNAME,FULL NAME,BIOGRAPHY,EMAIL,VERIFIED,PRIVATE,PROFILE PIC URL,FOLLOWERS,FOLLOWING,POSTS
7140177628,jennierubyjane,J,,,True,False,https://instagram.fcrk1-1.fna.fbcdn.net/vp/8a313f025e289518aa0756a22d5f9348/5C1C145A/t51.2885-19/s150x150/35415119_183333095698488_2780785797089984512_n.jpg,6671401,0,69
407964088,katyperry,KATY PERRY,Love. Light.,,True,False,https://instagram.fcrk1-1.fna.fbcdn.net/vp/f6ba7f0bdd3cad54307b284848be9568/5C0223E4/t51.2885-19/s150x150/33630380_2179323652301804_6601519004882305024_n.jpg,71323820,383,1004
6860189,justinbieber,Justin Bieber,checkout the song in the link,,True,False,https://instagram.fcrk1-1.fna.fbcdn.net/vp/fa6135c7f7652315f71d8aa8a2214bfe/5C182E38/t51.2885-19/s150x150/20633803_159905257904822_3024096755265306624_a.jpg,102484565,92,4366
7719696,arianagrande,Ariana Grande,@sweetener,,True,False,https://instagram.fcrk1-1.fna.fbcdn.net/vp/c8373b6e5907ab24409904e0d897b764/5C1C62C6/t51.2885-19/s150x150/39056914_717996981883382_3765001415806681088_n.jpg,126096157,1362,3607
8012033210,lalalalisa_m,LISA,🖤💗,,True,False,https://instagram.fcrk1-1.fna.fbcdn.net/vp/81e3029012286dda8ec0d12bb5fe999f/5C005EE2/t51.2885-19/s150x150/33829894_476867469428127_977429978410909696_n.jpg,7039976,0,51
5288440,juliabarretto,Julia,,,True,False,https://instagram.fcrk1-1.fna.fbcdn.net/vp/3b73094e0507548e1ab8ae8b0fc0e688/5C1C4B44/t51.2885-19/s150x150/36149440_273775013173696_6311664216264671232_n.jpg,5707474,242,1424
274127777,mauwrob,Maureen Wroblewitz,"AsNTM 5⠀⠀⠀⠀⠀⠀⠀⠀
twitter • MauWrob
M.A Prima One • chiniego@me.com
🇵🇭 @primastellamgt
NEW VIDEO 
  👇🏼     👇🏼",chiniego@me.com,True,False,https://instagram.fcrk1-1.fna.fbcdn.net/vp/a75ea491bdc7e826cd95cb142b75643a/5C01D43B/t51.2885-19/s150x150/30904517_160397594655979_8946121693055680512_n.jpg,852644,538,477
